{
    "href": "https://api.spotify.com/v1/me/top/tracks?limit=5&time_range=medium_term&locale=es-ES,es;q%3D0.9,ja-ES;q%3D0.8,ja;q%3D0.7,en-ES;q%3D0.6,en;q%3D0.5",
    "limit": 5,
    "next": "https://api.spotify.com/v1/me/top/tracks?offset=5&limit=5&time_range=medium_term&locale=es-ES,es;q%3D0.9,ja-ES;q%3D0.8,ja;q%3D0.7,en-ES;q%3D0.6,en;q%3D0.5",
    "offset": 0,
    "previous": null,
    "total": 5852,
    "items": [
      {
        "album": {
          "album_type": "album",
          "total_tracks": 14,
          "available_markets": ["AR", "AU", "AT", "BE", "BO", "BR", "BG", "CA", "CL", "CO", "CR", "CY", "CZ", "DK", "DO", "DE", "EC", "EE", "SV", "FI", "FR", "GR", "GT", "HN", "HK", "HU", "IS", "IE", "IT", "LV", "LT", "LU", "MY", "MT", "MX", "NL", "NZ", "NI", "NO", "PA", "PY", "PE", "PH", "PL", "PT", "SG", "SK", "ES", "SE", "CH", "TW", "TR", "UY", "US", "GB", "AD", "LI", "MC", "ID", "JP", "TH", "VN", "RO", "IL", "ZA", "SA", "AE", "BH", "QA", "OM", "KW", "EG", "MA", "DZ", "TN", "LB", "JO", "PS", "IN", "BY", "KZ", "MD", "UA", "AL", "BA", "HR", "ME", "MK", "RS", "SI", "KR", "BD", "PK", "LK", "GH", "KE", "NG", "TZ", "UG", "AG", "AM", "BS", "BB", "BZ", "BT", "BW", "BF", "CV", "CW", "DM", "FJ", "GM", "GE", "GD", "GW", "GY", "HT", "JM", "KI", "LS", "LR", "MW", "MV", "ML", "MH", "FM", "NA", "NR", "NE", "PW", "PG", "WS", "SM", "ST", "SN", "SC", "SL", "SB", "KN", "LC", "VC", "SR", "TL", "TO", "TT", "TV", "VU", "AZ", "BN", "BI", "KH", "CM", "TD", "KM", "GQ", "SZ", "GA", "GN", "KG", "LA", "MO", "MR", "MN", "NP", "RW", "TG", "UZ", "ZW", "BJ", "MG", "MU", "MZ", "AO", "CI", "DJ", "ZM", "CD", "CG", "IQ", "LY", "TJ", "VE", "ET", "XK"],
          "external_urls": {
            "spotify": "https://open.spotify.com/album/3PRoXYsngSwjEQWR5PsHWR"
          },
          "href": "https://api.spotify.com/v1/albums/3PRoXYsngSwjEQWR5PsHWR",
          "id": "3PRoXYsngSwjEQWR5PsHWR",
          "images": [
            {
              "url": "https://i.scdn.co/image/ab67616d0000b27328b8b9b46428896e6491e97a",
              "height": 640,
              "width": 640
            },
            {
              "url": "https://i.scdn.co/image/ab67616d00001e0228b8b9b46428896e6491e97a",
              "height": 300,
              "width": 300
            },
            {
              "url": "https://i.scdn.co/image/ab67616d0000485128b8b9b46428896e6491e97a",
              "height": 64,
              "width": 64
            }
          ],
          "name": "Revolver (Remastered)",
          "release_date": "1966-08-05",
          "release_date_precision": "day",
          "type": "album",
          "uri": "spotify:album:3PRoXYsngSwjEQWR5PsHWR",
          "artists": [
            {
              "external_urls": {
                "spotify": "https://open.spotify.com/artist/3WrFJ7ztbogyGnTHbHJFl2"
              },
              "href": "https://api.spotify.com/v1/artists/3WrFJ7ztbogyGnTHbHJFl2",
              "id": "3WrFJ7ztbogyGnTHbHJFl2",
              "name": "ザ・ビートルズ",
              "type": "artist",
              "uri": "spotify:artist:3WrFJ7ztbogyGnTHbHJFl2"
            }
          ],
          "is_playable": true
        },
        "artists": [
          {
            "external_urls": {
              "spotify": "https://open.spotify.com/artist/3WrFJ7ztbogyGnTHbHJFl2"
            },
            "href": "https://api.spotify.com/v1/artists/3WrFJ7ztbogyGnTHbHJFl2",
            "id": "3WrFJ7ztbogyGnTHbHJFl2",
            "name": "ザ・ビートルズ",
            "type": "artist",
            "uri": "spotify:artist:3WrFJ7ztbogyGnTHbHJFl2"
          }
        ],
        "available_markets": ["AR", "AU", "AT", "BE", "BO", "BR", "BG", "CA", "CL", "CO", "CR", "CY", "CZ", "DK", "DO", "DE", "EC", "EE", "SV", "FI", "FR", "GR", "GT", "HN", "HK", "HU", "IS", "IE", "IT", "LV", "LT", "LU", "MY", "MT", "MX", "NL", "NZ", "NI", "NO", "PA", "PY", "PE", "PH", "PL", "PT", "SG", "SK", "ES", "SE", "CH", "TW", "TR", "UY", "US", "GB", "AD", "LI", "MC", "ID", "JP", "TH", "VN", "RO", "IL", "ZA", "SA", "AE", "BH", "QA", "OM", "KW", "EG", "MA", "DZ", "TN", "LB", "JO", "PS", "IN", "BY", "KZ", "MD", "UA", "AL", "BA", "HR", "ME", "MK", "RS", "SI", "KR", "BD", "PK", "LK", "GH", "KE", "NG", "TZ", "UG", "AG", "AM", "BS", "BB", "BZ", "BT", "BW", "BF", "CV", "CW", "DM", "FJ", "GM", "GE", "GD", "GW", "GY", "HT", "JM", "KI", "LS", "LR", "MW", "MV", "ML", "MH", "FM", "NA", "NR", "NE", "PW", "PG", "WS", "SM", "ST", "SN", "SC", "SL", "SB", "KN", "LC", "VC", "SR", "TL", "TO", "TT", "TV", "VU", "AZ", "BN", "BI", "KH", "CM", "TD", "KM", "GQ", "SZ", "GA", "GN", "KG", "LA", "MO", "MR", "MN", "NP", "RW", "TG", "UZ", "ZW", "BJ", "MG", "MU", "MZ", "AO", "CI", "DJ", "ZM", "CD", "CG", "IQ", "LY", "TJ", "VE", "ET", "XK"],
        "disc_number": 1,
        "duration_ms": 144880,
        "explicit": false,
        "external_ids": {
          "isrc": "GBAYE0601497"
        },
        "external_urls": {
          "spotify": "https://open.spotify.com/track/2B4Y9u4ERAFiMo13XPJyGP"
        },
        "href": "https://api.spotify.com/v1/tracks/2B4Y9u4ERAFiMo13XPJyGP",
        "id": "2B4Y9u4ERAFiMo13XPJyGP",
        "is_playable": true,
        "name": "Here, There And Everywhere - Remastered 2009",
        "popularity": 67,
        "preview_url": null,
        "track_number": 5,
        "type": "track",
        "uri": "spotify:track:2B4Y9u4ERAFiMo13XPJyGP",
        "is_local": false
      },
      {
        "album": {
          "album_type": "album",
          "total_tracks": 12,
          "available_markets": ["AR", "AU", "AT", "BE", "BO", "BR", "BG", "CA", "CL", "CO", "CR", "CY", "CZ", "DK", "DO", "DE", "EC", "EE", "SV", "FI", "FR", "GR", "GT", "HN", "HK", "HU", "IS", "IE", "IT", "LV", "LT", "LU", "MY", "MT", "MX", "NL", "NZ", "NI", "NO", "PA", "PY", "PE", "PH", "PL", "PT", "SG", "SK", "ES", "SE", "CH", "TW", "TR", "UY", "US", "GB", "AD", "LI", "MC", "ID", "JP", "TH", "VN", "RO", "IL", "ZA", "SA", "AE", "BH", "QA", "OM", "KW", "EG", "MA", "DZ", "TN", "LB", "JO", "PS", "IN", "BY", "KZ", "MD", "UA", "AL", "BA", "HR", "ME", "MK", "RS", "SI", "KR", "BD", "PK", "LK", "GH", "KE", "NG", "TZ", "UG", "AG", "AM", "BS", "BB", "BZ", "BT", "BW", "BF", "CV", "CW", "DM", "FJ", "GM", "GE", "GD", "GW", "GY", "HT", "JM", "KI", "LS", "LR", "MW", "MV", "ML", "MH", "FM", "NA", "NR", "NE", "PW", "PG", "PR", "WS", "SM", "ST", "SN", "SC", "SL", "SB", "KN", "LC", "VC", "SR", "TL", "TO", "TT", "TV", "VU", "AZ", "BN", "BI", "KH", "CM", "TD", "KM", "GQ", "SZ", "GA", "GN", "KG", "LA", "MO", "MR", "MN", "NP", "RW", "TG", "UZ", "ZW", "BJ", "MG", "MU", "MZ", "AO", "CI", "DJ", "ZM", "CD", "CG", "IQ", "LY", "TJ", "VE", "ET", "XK"],
          "external_urls": {
            "spotify": "https://open.spotify.com/album/0dZaHQ0OJlIyVrEuvnXmS9"
          },
          "href": "https://api.spotify.com/v1/albums/0dZaHQ0OJlIyVrEuvnXmS9",
          "id": "0dZaHQ0OJlIyVrEuvnXmS9",
          "images": [
            {
              "url": "https://i.scdn.co/image/ab67616d0000b2736c955079f53ae636e7bef0ee",
              "height": 640,
              "width": 640
            },
            {
              "url": "https://i.scdn.co/image/ab67616d00001e026c955079f53ae636e7bef0ee",
              "height": 300,
              "width": 300
            },
            {
              "url": "https://i.scdn.co/image/ab67616d000048516c955079f53ae636e7bef0ee",
              "height": 64,
              "width": 64
            }
          ],
          "name": "You Don't Mess Around With Jim",
          "release_date": "1972-04-01",
          "release_date_precision": "day",
          "type": "album",
          "uri": "spotify:album:0dZaHQ0OJlIyVrEuvnXmS9",
          "artists": [
            {
              "external_urls": {
                "spotify": "https://open.spotify.com/artist/1R6Hx1tJ2VOUyodEpC12xM"
              },
              "href": "https://api.spotify.com/v1/artists/1R6Hx1tJ2VOUyodEpC12xM",
              "id": "1R6Hx1tJ2VOUyodEpC12xM",
              "name": "Jim Croce",
              "type": "artist",
              "uri": "spotify:artist:1R6Hx1tJ2VOUyodEpC12xM"
            }
          ],
          "is_playable": true
        },
        "artists": [
          {
            "external_urls": {
              "spotify": "https://open.spotify.com/artist/1R6Hx1tJ2VOUyodEpC12xM"
            },
            "href": "https://api.spotify.com/v1/artists/1R6Hx1tJ2VOUyodEpC12xM",
            "id": "1R6Hx1tJ2VOUyodEpC12xM",
            "name": "Jim Croce",
            "type": "artist",
            "uri": "spotify:artist:1R6Hx1tJ2VOUyodEpC12xM"
          }
        ],
        "available_markets": ["AR", "AU", "AT", "BE", "BO", "BR", "BG", "CA", "CL", "CO", "CR", "CY", "CZ", "DK", "DO", "DE", "EC", "EE", "SV", "FI", "FR", "GR", "GT", "HN", "HK", "HU", "IS", "IE", "IT", "LV", "LT", "LU", "MY", "MT", "MX", "NL", "NZ", "NI", "NO", "PA", "PY", "PE", "PH", "PL", "PT", "SG", "SK", "ES", "SE", "CH", "TW", "TR", "UY", "US", "GB", "AD", "LI", "MC", "ID", "JP", "TH", "VN", "RO", "IL", "ZA", "SA", "AE", "BH", "QA", "OM", "KW", "EG", "MA", "DZ", "TN", "LB", "JO", "PS", "IN", "BY", "KZ", "MD", "UA", "AL", "BA", "HR", "ME", "MK", "RS", "SI", "KR", "BD", "PK", "LK", "GH", "KE", "NG", "TZ", "UG", "AG", "AM", "BS", "BB", "BZ", "BT", "BW", "BF", "CV", "CW", "DM", "FJ", "GM", "GE", "GD", "GW", "GY", "HT", "JM", "KI", "LS", "LR", "MW", "MV", "ML", "MH", "FM", "NA", "NR", "NE", "PW", "PG", "PR", "WS", "SM", "ST", "SN", "SC", "SL", "SB", "KN", "LC", "VC", "SR", "TL", "TO", "TT", "TV", "VU", "AZ", "BN", "BI", "KH", "CM", "TD", "KM", "GQ", "SZ", "GA", "GN", "KG", "LA", "MO", "MR", "MN", "NP", "RW", "TG", "UZ", "ZW", "BJ", "MG", "MU", "MZ", "AO", "CI", "DJ", "ZM", "CD", "CG", "IQ", "LY", "TJ", "VE", "ET", "XK"],
        "disc_number": 1,
        "duration_ms": 148586,
        "explicit": false,
        "external_ids": {
          "isrc": "GBAJE7200780"
        },
        "external_urls": {
          "spotify": "https://open.spotify.com/track/7uWFUpGuEfmxYeymkV95jn"
        },
        "href": "https://api.spotify.com/v1/tracks/7uWFUpGuEfmxYeymkV95jn",
        "id": "7uWFUpGuEfmxYeymkV95jn",
        "is_playable": true,
        "name": "Time in a Bottle",
        "popularity": 75,
        "preview_url": null,
        "track_number": 8,
        "type": "track",
        "uri": "spotify:track:7uWFUpGuEfmxYeymkV95jn",
        "is_local": false
      },
      {
        "album": {
          "album_type": "album",
          "total_tracks": 14,
          "available_markets": ["AR", "AU", "AT", "BE", "BO", "BR", "BG", "CA", "CL", "CO", "CR", "CY", "CZ", "DK", "DO", "DE", "EC", "EE", "SV", "FI", "FR", "GR", "GT", "HN", "HK", "HU", "IS", "IE", "IT", "LV", "LT", "LU", "MY", "MT", "MX", "NL", "NZ", "NI", "NO", "PA", "PY", "PE", "PH", "PL", "PT", "SG", "SK", "ES", "SE", "CH", "TW", "TR", "UY", "US", "GB", "AD", "LI", "MC", "ID", "JP", "TH", "VN", "RO", "IL", "ZA", "SA", "AE", "BH", "QA", "OM", "KW", "EG", "MA", "DZ", "TN", "LB", "JO", "PS", "IN", "BY", "KZ", "MD", "UA", "AL", "BA", "HR", "ME", "MK", "RS", "SI", "KR", "BD", "PK", "LK", "GH", "KE", "NG", "TZ", "UG", "AG", "AM", "BS", "BB", "BZ", "BT", "BW", "BF", "CV", "CW", "DM", "FJ", "GM", "GE", "GD", "GW", "GY", "HT", "JM", "KI", "LS", "LR", "MW", "MV", "ML", "MH", "FM", "NA", "NR", "NE", "PW", "PG", "WS", "SM", "ST", "SN", "SC", "SL", "SB", "KN", "LC", "VC", "SR", "TL", "TO", "TT", "TV", "VU", "AZ", "BN", "BI", "KH", "CM", "TD", "KM", "GQ", "SZ", "GA", "GN", "KG", "LA", "MO", "MR", "MN", "NP", "RW", "TG", "UZ", "ZW", "BJ", "MG", "MU", "MZ", "AO", "CI", "DJ", "ZM", "CD", "CG", "IQ", "LY", "TJ", "VE", "ET", "XK"],
          "external_urls": {
            "spotify": "https://open.spotify.com/album/50o7kf2wLwVmOTVYJOTplm"
          },
          "href": "https://api.spotify.com/v1/albums/50o7kf2wLwVmOTVYJOTplm",
          "id": "50o7kf2wLwVmOTVYJOTplm",
          "images": [
            {
              "url": "https://i.scdn.co/image/ab67616d0000b273ed801e58a9ababdea6ac7ce4",
              "height": 640,
              "width": 640
            },
            {
              "url": "https://i.scdn.co/image/ab67616d00001e02ed801e58a9ababdea6ac7ce4",
              "height": 300,
              "width": 300
            },
            {
              "url": "https://i.scdn.co/image/ab67616d00004851ed801e58a9ababdea6ac7ce4",
              "height": 64,
              "width": 64
            }
          ],
          "name": "Rubber Soul (Remastered)",
          "release_date": "1965-12-03",
          "release_date_precision": "day",
          "type": "album",
          "uri": "spotify:album:50o7kf2wLwVmOTVYJOTplm",
          "artists": [
            {
              "external_urls": {
                "spotify": "https://open.spotify.com/artist/3WrFJ7ztbogyGnTHbHJFl2"
              },
              "href": "https://api.spotify.com/v1/artists/3WrFJ7ztbogyGnTHbHJFl2",
              "id": "3WrFJ7ztbogyGnTHbHJFl2",
              "name": "ザ・ビートルズ",
              "type": "artist",
              "uri": "spotify:artist:3WrFJ7ztbogyGnTHbHJFl2"
            }
          ],
          "is_playable": true
        },
        "artists": [
          {
            "external_urls": {
              "spotify": "https://open.spotify.com/artist/3WrFJ7ztbogyGnTHbHJFl2"
            },
            "href": "https://api.spotify.com/v1/artists/3WrFJ7ztbogyGnTHbHJFl2",
            "id": "3WrFJ7ztbogyGnTHbHJFl2",
            "name": "ザ・ビートルズ",
            "type": "artist",
            "uri": "spotify:artist:3WrFJ7ztbogyGnTHbHJFl2"
          }
        ],
        "available_markets": ["AR", "AU", "AT", "BE", "BO", "BR", "BG", "CA", "CL", "CO", "CR", "CY", "CZ", "DK", "DO", "DE", "EC", "EE", "SV", "FI", "FR", "GR", "GT", "HN", "HK", "HU", "IS", "IE", "IT", "LV", "LT", "LU", "MY", "MT", "MX", "NL", "NZ", "NI", "NO", "PA", "PY", "PE", "PH", "PL", "PT", "SG", "SK", "ES", "SE", "CH", "TW", "TR", "UY", "US", "GB", "AD", "LI", "MC", "ID", "JP", "TH", "VN", "RO", "IL", "ZA", "SA", "AE", "BH", "QA", "OM", "KW", "EG", "MA", "DZ", "TN", "LB", "JO", "PS", "IN", "BY", "KZ", "MD", "UA", "AL", "BA", "HR", "ME", "MK", "RS", "SI", "KR", "BD", "PK", "LK", "GH", "KE", "NG", "TZ", "UG", "AG", "AM", "BS", "BB", "BZ", "BT", "BW", "BF", "CV", "CW", "DM", "FJ", "GM", "GE", "GD", "GW", "GY", "HT", "JM", "KI", "LS", "LR", "MW", "MV", "ML", "MH", "FM", "NA", "NR", "NE", "PW", "PG", "WS", "SM", "ST", "SN", "SC", "SL", "SB", "KN", "LC", "VC", "SR", "TL", "TO", "TT", "TV", "VU", "AZ", "BN", "BI", "KH", "CM", "TD", "KM", "GQ", "SZ", "GA", "GN", "KG", "LA", "MO", "MR", "MN", "NP", "RW", "TG", "UZ", "ZW", "BJ", "MG", "MU", "MZ", "AO", "CI", "DJ", "ZM", "CD", "CG", "IQ", "LY", "TJ", "VE", "ET", "XK"],
        "disc_number": 1,
        "duration_ms": 146333,
        "explicit": false,
        "external_ids": {
          "isrc": "GBAYE0601489"
        },
        "external_urls": {
          "spotify": "https://open.spotify.com/track/3KfbEIOC7YIv90FIfNSZpo"
        },
        "href": "https://api.spotify.com/v1/tracks/3KfbEIOC7YIv90FIfNSZpo",
        "id": "3KfbEIOC7YIv90FIfNSZpo",
        "is_playable": true,
        "name": "In My Life - Remastered 2009",
        "popularity": 76,
        "preview_url": null,
        "track_number": 11,
        "type": "track",
        "uri": "spotify:track:3KfbEIOC7YIv90FIfNSZpo",
        "is_local": false
      },
      {
        "album": {
          "album_type": "album",
          "total_tracks": 13,
          "available_markets": ["AR", "AU", "AT", "BE", "BO", "BR", "BG", "CA", "CL", "CO", "CR", "CY", "CZ", "DK", "DO", "DE", "EC", "EE", "SV", "FI", "FR", "GR", "GT", "HN", "HK", "HU", "IS", "IE", "IT", "LV", "LT", "LU", "MY", "MT", "MX", "NL", "NZ", "NI", "NO", "PA", "PY", "PE", "PH", "PL", "PT", "SG", "SK", "ES", "SE", "CH", "TW", "TR", "UY", "US", "GB", "AD", "LI", "MC", "ID", "JP", "TH", "VN", "RO", "IL", "ZA", "SA", "AE", "BH", "QA", "OM", "KW", "EG", "MA", "DZ", "TN", "LB", "JO", "PS", "IN", "BY", "KZ", "MD", "UA", "AL", "BA", "HR", "ME", "MK", "RS", "SI", "KR", "BD", "PK", "LK", "GH", "KE", "NG", "TZ", "UG", "AG", "AM", "BS", "BB", "BZ", "BT", "BW", "BF", "CV", "CW", "DM", "FJ", "GM", "GE", "GD", "GW", "GY", "HT", "JM", "KI", "LS", "LR", "MW", "MV", "ML", "MH", "FM", "NA", "NR", "NE", "PW", "PG", "WS", "SM", "ST", "SN", "SC", "SL", "SB", "KN", "LC", "VC", "SR", "TL", "TO", "TT", "TV", "VU", "AZ", "BN", "BI", "KH", "CM", "TD", "KM", "GQ", "SZ", "GA", "GN", "KG", "LA", "MO", "MR", "MN", "NP", "RW", "TG", "UZ", "ZW", "BJ", "MG", "MU", "MZ", "AO", "CI", "DJ", "ZM", "CD", "CG", "IQ", "LY", "TJ", "VE", "ET", "XK"],
          "external_urls": {
            "spotify": "https://open.spotify.com/album/6wCttLq0ADzkPgtRnUihLV"
          },
          "href": "https://api.spotify.com/v1/albums/6wCttLq0ADzkPgtRnUihLV",
          "id": "6wCttLq0ADzkPgtRnUihLV",
          "images": [
            {
              "url": "https://i.scdn.co/image/ab67616d0000b273e230f303815e82a86713eedd",
              "height": 640,
              "width": 640
            },
            {
              "url": "https://i.scdn.co/image/ab67616d00001e02e230f303815e82a86713eedd",
              "height": 300,
              "width": 300
            },
            {
              "url": "https://i.scdn.co/image/ab67616d00004851e230f303815e82a86713eedd",
              "height": 64,
              "width": 64
            }
          ],
          "name": "A Hard Day's Night (Remastered)",
          "release_date": "1964-07-10",
          "release_date_precision": "day",
          "type": "album",
          "uri": "spotify:album:6wCttLq0ADzkPgtRnUihLV",
          "artists": [
            {
              "external_urls": {
                "spotify": "https://open.spotify.com/artist/3WrFJ7ztbogyGnTHbHJFl2"
              },
              "href": "https://api.spotify.com/v1/artists/3WrFJ7ztbogyGnTHbHJFl2",
              "id": "3WrFJ7ztbogyGnTHbHJFl2",
              "name": "ザ・ビートルズ",
              "type": "artist",
              "uri": "spotify:artist:3WrFJ7ztbogyGnTHbHJFl2"
            }
          ],
          "is_playable": true
        },
        "artists": [
          {
            "external_urls": {
              "spotify": "https://open.spotify.com/artist/3WrFJ7ztbogyGnTHbHJFl2"
            },
            "href": "https://api.spotify.com/v1/artists/3WrFJ7ztbogyGnTHbHJFl2",
            "id": "3WrFJ7ztbogyGnTHbHJFl2",
            "name": "ザ・ビートルズ",
            "type": "artist",
            "uri": "spotify:artist:3WrFJ7ztbogyGnTHbHJFl2"
          }
        ],
        "available_markets": ["AR", "AU", "AT", "BE", "BO", "BR", "BG", "CA", "CL", "CO", "CR", "CY", "CZ", "DK", "DO", "DE", "EC", "EE", "SV", "FI", "FR", "GR", "GT", "HN", "HK", "HU", "IS", "IE", "IT", "LV", "LT", "LU", "MY", "MT", "MX", "NL", "NZ", "NI", "NO", "PA", "PY", "PE", "PH", "PL", "PT", "SG", "SK", "ES", "SE", "CH", "TW", "TR", "UY", "US", "GB", "AD", "LI", "MC", "ID", "JP", "TH", "VN", "RO", "IL", "ZA", "SA", "AE", "BH", "QA", "OM", "KW", "EG", "MA", "DZ", "TN", "LB", "JO", "PS", "IN", "BY", "KZ", "MD", "UA", "AL", "BA", "HR", "ME", "MK", "RS", "SI", "KR", "BD", "PK", "LK", "GH", "KE", "NG", "TZ", "UG", "AG", "AM", "BS", "BB", "BZ", "BT", "BW", "BF", "CV", "CW", "DM", "FJ", "GM", "GE", "GD", "GW", "GY", "HT", "JM", "KI", "LS", "LR", "MW", "MV", "ML", "MH", "FM", "NA", "NR", "NE", "PW", "PG", "WS", "SM", "ST", "SN", "SC", "SL", "SB", "KN", "LC", "VC", "SR", "TL", "TO", "TT", "TV", "VU", "AZ", "BN", "BI", "KH", "CM", "TD", "KM", "GQ", "SZ", "GA", "GN", "KG", "LA", "MO", "MR", "MN", "NP", "RW", "TG", "UZ", "ZW", "BJ", "MG", "MU", "MZ", "AO", "CI", "DJ", "ZM", "CD", "CG", "IQ", "LY", "TJ", "VE", "ET", "XK"],
        "disc_number": 1,
        "duration_ms": 149693,
        "explicit": false,
        "external_ids": {
          "isrc": "GBAYE0601442"
        },
        "external_urls": {
          "spotify": "https://open.spotify.com/track/65vdMBskhx3akkG9vQlSH1"
        },
        "href": "https://api.spotify.com/v1/tracks/65vdMBskhx3akkG9vQlSH1",
        "id": "65vdMBskhx3akkG9vQlSH1",
        "is_playable": true,
        "name": "And I Love Her - Remastered 2009",
        "popularity": 73,
        "preview_url": null,
        "track_number": 5,
        "type": "track",
        "uri": "spotify:track:65vdMBskhx3akkG9vQlSH1",
        "is_local": false
      },
      {
        "album": {
          "album_type": "album",
          "total_tracks": 14,
          "available_markets": ["AR", "AU", "AT", "BE", "BO", "BR", "BG", "CA", "CL", "CO", "CR", "CY", "CZ", "DK", "DO", "DE", "EC", "EE", "SV", "FI", "FR", "GR", "GT", "HN", "HK", "HU", "IS", "IE", "IT", "LV", "LT", "LU", "MY", "MT", "MX", "NL", "NZ", "NI", "NO", "PA", "PY", "PE", "PH", "PL", "PT", "SG", "SK", "ES", "SE", "CH", "TW", "TR", "UY", "US", "GB", "AD", "LI", "MC", "ID", "JP", "TH", "VN", "RO", "IL", "ZA", "SA", "AE", "BH", "QA", "OM", "KW", "EG", "MA", "DZ", "TN", "LB", "JO", "PS", "IN", "BY", "KZ", "MD", "UA", "AL", "BA", "HR", "ME", "MK", "RS", "SI", "KR", "BD", "PK", "LK", "GH", "KE", "NG", "TZ", "UG", "AG", "AM", "BS", "BB", "BZ", "BT", "BW", "BF", "CV", "CW", "DM", "FJ", "GM", "GE", "GD", "GW", "GY", "HT", "JM", "KI", "LS", "LR", "MW", "MV", "ML", "MH", "FM", "NA", "NR", "NE", "PW", "PG", "WS", "SM", "ST", "SN", "SC", "SL", "SB", "KN", "LC", "VC", "SR", "TL", "TO", "TT", "TV", "VU", "AZ", "BN", "BI", "KH", "CM", "TD", "KM", "GQ", "SZ", "GA", "GN", "KG", "LA", "MO", "MR", "MN", "NP", "RW", "TG", "UZ", "ZW", "BJ", "MG", "MU", "MZ", "AO", "CI", "DJ", "ZM", "CD", "CG", "IQ", "LY", "TJ", "VE", "ET", "XK"],
          "external_urls": {
            "spotify": "https://open.spotify.com/album/44D07i1Lk0zFtWHRARMih6"
          },
          "href": "https://api.spotify.com/v1/albums/44D07i1Lk0zFtWHRARMih6",
          "id": "44D07i1Lk0zFtWHRARMih6",
          "images": [
            {
              "url": "https://i.scdn.co/image/ab67616d0000b273e4b8ec3d2ffe1f77c7185d48",
              "height": 640,
              "width": 640
            },
            {
              "url": "https://i.scdn.co/image/ab67616d00001e02e4b8ec3d2ffe1f77c7185d48",
              "height": 300,
              "width": 300
            },
            {
              "url": "https://i.scdn.co/image/ab67616d00004851e4b8ec3d2ffe1f77c7185d48",
              "height": 64,
              "width": 64
            }
          ],
          "name": "Alta Suciedad",
          "release_date": "1997",
          "release_date_precision": "year",
          "type": "album",
          "uri": "spotify:album:44D07i1Lk0zFtWHRARMih6",
          "artists": [
            {
              "external_urls": {
                "spotify": "https://open.spotify.com/artist/3tAICgiSR5PfYY4B8qsoAU"
              },
              "href": "https://api.spotify.com/v1/artists/3tAICgiSR5PfYY4B8qsoAU",
              "id": "3tAICgiSR5PfYY4B8qsoAU",
              "name": "Andrés Calamaro",
              "type": "artist",
              "uri": "spotify:artist:3tAICgiSR5PfYY4B8qsoAU"
            }
          ],
          "is_playable": true
        },
        "artists": [
          {
            "external_urls": {
              "spotify": "https://open.spotify.com/artist/3tAICgiSR5PfYY4B8qsoAU"
            },
            "href": "https://api.spotify.com/v1/artists/3tAICgiSR5PfYY4B8qsoAU",
            "id": "3tAICgiSR5PfYY4B8qsoAU",
            "name": "Andrés Calamaro",
            "type": "artist",
            "uri": "spotify:artist:3tAICgiSR5PfYY4B8qsoAU"
          }
        ],
        "available_markets": ["AR", "AU", "AT", "BE", "BO", "BR", "BG", "CA", "CL", "CO", "CR", "CY", "CZ", "DK", "DO", "DE", "EC", "EE", "SV", "FI", "FR", "GR", "GT", "HN", "HK", "HU", "IS", "IE", "IT", "LV", "LT", "LU", "MY", "MT", "MX", "NL", "NZ", "NI", "NO", "PA", "PY", "PE", "PH", "PL", "PT", "SG", "SK", "ES", "SE", "CH", "TW", "TR", "UY", "US", "GB", "AD", "LI", "MC", "ID", "JP", "TH", "VN", "RO", "IL", "ZA", "SA", "AE", "BH", "QA", "OM", "KW", "EG", "MA", "DZ", "TN", "LB", "JO", "PS", "IN", "BY", "KZ", "MD", "UA", "AL", "BA", "HR", "ME", "MK", "RS", "SI", "KR", "BD", "PK", "LK", "GH", "KE", "NG", "TZ", "UG", "AG", "AM", "BS", "BB", "BZ", "BT", "BW", "BF", "CV", "CW", "DM", "FJ", "GM", "GE", "GD", "GW", "GY", "HT", "JM", "KI", "LS", "LR", "MW", "MV", "ML", "MH", "FM", "NA", "NR", "NE", "PW", "PG", "WS", "SM", "ST", "SN", "SC", "SL", "SB", "KN", "LC", "VC", "SR", "TL", "TO", "TT", "TV", "VU", "AZ", "BN", "BI", "KH", "CM", "TD", "KM", "GQ", "SZ", "GA", "GN", "KG", "LA", "MO", "MR", "MN", "NP", "RW", "TG", "UZ", "ZW", "BJ", "MG", "MU", "MZ", "AO", "CI", "DJ", "ZM", "CD", "CG", "IQ", "LY", "TJ", "VE", "ET", "XK"],
        "disc_number": 1,
        "duration_ms": 277653,
        "explicit": false,
        "external_ids": {
          "isrc": "ES5019753004"
        },
        "external_urls": {
          "spotify": "https://open.spotify.com/track/1p7m9H4H8s0Y7SgRm7j3ED"
        },
        "href": "https://api.spotify.com/v1/tracks/1p7m9H4H8s0Y7SgRm7j3ED",
        "id": "1p7m9H4H8s0Y7SgRm7j3ED",
        "is_playable": true,
        "name": "Flaca",
        "popularity": 75,
        "preview_url": null,
        "track_number": 5,
        "type": "track",
        "uri": "spotify:track:1p7m9H4H8s0Y7SgRm7j3ED",
        "is_local": false
      }
    ]
  }